^C:\USERS\NIKITA\DOCUMENTS\C++PRACTICE\WARGAMING\3.SORT\SORTALG\SORTALG\SORTALG.CPP
C:\USERS\NIKITA\DOCUMENTS\C++PRACTICE\WARGAMING\3.SORT\SORTALG\SORTALG\DEBUG\VC142.PDB
C:\USERS\NIKITA\DOCUMENTS\C++PRACTICE\WARGAMING\3.SORT\SORTALG\SORTALG\DEBUG\VC142.IDB
C:\USERS\NIKITA\DOCUMENTS\C++PRACTICE\WARGAMING\3.SORT\SORTALG\SORTALG\DEBUG\SORTALG.OBJ
