^C:\USERS\NIKITA\DOCUMENTS\C++PRACTICE\WARGAMING\3.SORT\C++\SORTALG\SORTALG\SORTALG.CPP
C:\USERS\NIKITA\DOCUMENTS\C++PRACTICE\WARGAMING\3.SORT\C++\SORTALG\SORTALG\X64\DEBUG\VC142.PDB
C:\USERS\NIKITA\DOCUMENTS\C++PRACTICE\WARGAMING\3.SORT\C++\SORTALG\SORTALG\X64\DEBUG\VC142.IDB
C:\USERS\NIKITA\DOCUMENTS\C++PRACTICE\WARGAMING\3.SORT\C++\SORTALG\SORTALG\X64\DEBUG\SORTALG.OBJ
^C:\USERS\NIKIT\DOCUMENTS\VILED PROJECTS\WARGAMING\3.SORT\C++\SORTALG\SORTALG\SORTALG.CPP
C:\USERS\NIKIT\DOCUMENTS\VILED PROJECTS\WARGAMING\3.SORT\C++\SORTALG\SORTALG\X64\DEBUG\VC142.PDB
C:\USERS\NIKIT\DOCUMENTS\VILED PROJECTS\WARGAMING\3.SORT\C++\SORTALG\SORTALG\X64\DEBUG\VC142.IDB
C:\USERS\NIKIT\DOCUMENTS\VILED PROJECTS\WARGAMING\3.SORT\C++\SORTALG\SORTALG\X64\DEBUG\SORTALG.OBJ
^C:\USERS\NIKIT\DOCUMENTS\VILED PROJECTS\WARGAMING\3.SORT\SORTALG\SORTALG\SORTALG.CPP
C:\USERS\NIKIT\DOCUMENTS\VILED PROJECTS\WARGAMING\3.SORT\SORTALG\SORTALG\X64\DEBUG\VC142.PDB
C:\USERS\NIKIT\DOCUMENTS\VILED PROJECTS\WARGAMING\3.SORT\SORTALG\SORTALG\X64\DEBUG\VC142.IDB
C:\USERS\NIKIT\DOCUMENTS\VILED PROJECTS\WARGAMING\3.SORT\SORTALG\SORTALG\X64\DEBUG\SORTALG.OBJ
